{
  "__type__": "cc.AnimationClip",
  "_name": "Fire",
  "_objFlags": 0,
  "_native": "",
  "_duration": 0.2833333333333333,
  "sample": 60,
  "speed": 1,
  "wrapMode": 1,
  "curveData": {
    "paths": {
      "body/Effect/Fire": {
        "props": {
          "y": [
            {
              "frame": 0,
              "value": 94
            },
            {
              "frame": 0.11666666666666667,
              "value": 94
            },
            {
              "frame": 0.13333333333333333,
              "value": 107
            },
            {
              "frame": 0.16666666666666666,
              "value": 124
            },
            {
              "frame": 0.18333333333333332,
              "value": 124
            },
            {
              "frame": 0.2,
              "value": 94
            }
          ]
        },
        "comps": {
          "cc.Sprite": {
            "spriteFrame": [
              {
                "frame": 0,
                "value": {
                  "__uuid__": "0c704d75-9b6e-43f5-b076-c412817b3c41"
                }
              },
              {
                "frame": 0.03333333333333333,
                "value": {
                  "__uuid__": "ee6c95a0-356a-409b-92cf-ee77a5317b50"
                }
              },
              {
                "frame": 0.06666666666666667,
                "value": {
                  "__uuid__": "670f9cf4-f2cd-4e91-8d3e-fa66634a93b5"
                }
              },
              {
                "frame": 0.1,
                "value": {
                  "__uuid__": "8f5c0bd3-978d-41d9-803c-b94b5dc127ad"
                }
              },
              {
                "frame": 0.13333333333333333,
                "value": {
                  "__uuid__": "4ccd1276-f15f-4781-9e36-9b0f86833a3f"
                }
              },
              {
                "frame": 0.16666666666666666,
                "value": {
                  "__uuid__": "c8180f8b-0ec3-477b-af36-6a22383f8132"
                }
              },
              {
                "frame": 0.2,
                "value": {
                  "__uuid__": "b937037d-4ddc-44c6-8768-7de8f4987613"
                }
              },
              {
                "frame": 0.23333333333333334,
                "value": {
                  "__uuid__": "95be69c1-13ac-4353-9e94-53ab192549a5"
                }
              },
              {
                "frame": 0.26666666666666666,
                "value": null
              }
            ]
          }
        }
      }
    }
  },
  "events": []
}