{
  "__type__": "cc.AnimationClip",
  "_name": "UpMagazine",
  "_objFlags": 0,
  "_native": "",
  "_duration": 0.5,
  "sample": 60,
  "speed": 1,
  "wrapMode": 1,
  "curveData": {
    "paths": {
      "Magazine Holder/Magazine": {
        "props": {
          "position": [
            {
              "frame": 0,
              "value": [
                -50,
                57
              ]
            },
            {
              "frame": 0.45,
              "value": [
                -65,
                207
              ]
            },
            {
              "frame": 0.5,
              "value": [
                -70,
                207
              ]
            }
          ],
          "angle": [
            {
              "frame": 0,
              "value": 0
            },
            {
              "frame": 0.45,
              "value": 6
            },
            {
              "frame": 0.5,
              "value": 0
            }
          ]
        }
      }
    },
    "props": {
      "angle": [
        {
          "frame": 0,
          "value": 0
        },
        {
          "frame": 0.45,
          "value": 0
        },
        {
          "frame": 0.5,
          "value": -0.5
        }
      ]
    }
  },
  "events": []
}