{
  "package": "com.zswq.xy.nearme.gamecenter",
  "name": "真实武器枪械模拟器",
  "icon": "F:\\cocos\\GUN\\assets\\icon.png",
  "versionName": "1.0.0",
  "versionCode": "1",
  "minPlatformVersion": "1095",
  "deviceOrientation": "landscape",
  "logLevel": "log",
  "tinyPackageServer": "",
  "useDebugKey": true,
  "privatePath": "",
  "certificatePath": "",
  "disabledMode": "disabled is-disabled",
  "npmPath": "",
  "showNpmPath": false,
  "packFirstScreenRes": false
}
